{
  "results": [
    {
      "command": "./sad-dd if=testfile of=testfile2 bs=4M",
      "mean": 12.864555806159998,
      "stddev": 0.5301090503161642,
      "median": 12.91914404536,
      "user": 0.008276114,
      "system": 8.192735899999999,
      "min": 12.038362271859999,
      "max": 13.773693395859999,
      "times": [
        12.37654029286,
        12.038362271859999,
        12.90375956986,
        12.36057665986,
        13.25383646886,
        13.34226631086,
        12.934528520859999,
        13.773693395859999,
        13.09503060486,
        12.56696396586
      ],
      "exit_codes": [
        0,
        0,
        0,
        0,
        0,
        0,
        0,
        0,
        0,
        0
      ],
      "parameters": {
        "program": "./sad-dd"
      }
    },
    {
      "command": "./busybox dd if=testfile of=testfile2 bs=4M",
      "mean": 13.17184728526,
      "stddev": 0.8568456360948458,
      "median": 13.04916926886,
      "user": 0.008664314,
      "system": 8.3765082,
      "min": 11.94381507286,
      "max": 14.41762346786,
      "times": [
        14.41762346786,
        12.600640027859999,
        13.15549551386,
        12.50515610486,
        12.360881661859999,
        11.94381507286,
        14.35605588886,
        13.534087101859999,
        13.90187498886,
        12.94284302386
      ],
      "exit_codes": [
        0,
        0,
        0,
        0,
        0,
        0,
        0,
        0,
        0,
        0
      ],
      "parameters": {
        "program": "./busybox dd"
      }
    },
    {
      "command": "dd if=testfile of=testfile2 bs=4M",
      "mean": 13.535647287859998,
      "stddev": 1.069214914203303,
      "median": 13.185867249360001,
      "user": 0.010375259999999999,
      "system": 8.4787402,
      "min": 12.46177824586,
      "max": 15.91198011286,
      "times": [
        14.13908721386,
        13.34520440486,
        15.91198011286,
        14.598464247859999,
        13.48241446086,
        12.624217398859999,
        12.46177824586,
        12.79608166786,
        12.97071503186,
        13.02653009386
      ],
      "exit_codes": [
        0,
        0,
        0,
        0,
        0,
        0,
        0,
        0,
        0,
        0
      ],
      "parameters": {
        "program": "dd"
      }
    }
  ]
}
