{
  "results": [
    {
      "command": "sad-dd if=LibreELEC-RPi4.arm-11.0.1.img of=/dev/sdb bs=4M",
      "mean": 54.82698369524,
      "stddev": 0.5378416034235932,
      "median": 54.68981420144,
      "user": 0.003998028,
      "system": 1.56465188,
      "min": 54.02332932494,
      "max": 55.586161319940004,
      "times": [
        54.02332932494,
        54.668477011940006,
        55.54289201494,
        54.533109554940005,
        54.79865499094,
        55.469005894940004,
        54.71115139094,
        55.586161319940004,
        54.27637324194,
        54.66068220694
      ],
      "exit_codes": [
        0,
        0,
        0,
        0,
        0,
        0,
        0,
        0,
        0,
        0
      ],
      "parameters": {
        "program": "sad-dd"
      }
    },
    {
      "command": "busybox dd if=LibreELEC-RPi4.arm-11.0.1.img of=/dev/sdb bs=4M",
      "mean": 54.93929988624001,
      "stddev": 0.46305356323951946,
      "median": 54.677148353940005,
      "user": 0.001640444,
      "system": 1.5643684800000002,
      "min": 54.47056686794,
      "max": 55.61766897694,
      "times": [
        55.361193768940005,
        54.47056686794,
        54.705901116940005,
        55.497821535940005,
        54.58964521394,
        54.648395590940005,
        55.390381278940005,
        54.535473341940005,
        54.575951169940005,
        55.61766897694
      ],
      "exit_codes": [
        0,
        0,
        0,
        0,
        0,
        0,
        0,
        0,
        0,
        0
      ],
      "parameters": {
        "program": "busybox dd"
      }
    },
    {
      "command": "dd if=LibreELEC-RPi4.arm-11.0.1.img of=/dev/sdb bs=4M",
      "mean": 55.363120446239996,
      "stddev": 1.154381598124504,
      "median": 54.86145832494,
      "user": 0.002429936,
      "system": 1.5713389799999997,
      "min": 54.42640986794,
      "max": 58.10119537994,
      "times": [
        54.47609724394,
        54.569240977940005,
        55.49754335894,
        54.82915612494,
        55.56993529094,
        58.10119537994,
        54.77111803394,
        56.49674765894,
        54.42640986794,
        54.89376052494
      ],
      "exit_codes": [
        0,
        0,
        0,
        0,
        0,
        0,
        0,
        0,
        0,
        0
      ],
      "parameters": {
        "program": "dd"
      }
    }
  ]
}
